id,prenom,genre,age,metier,groupe,canton,taux,salaire
0,Ayden,masculin,93,Illustrateur,2,Berne ,0,0
1,NULL,masculin,12,Fleuriste,2,Fribourg ,0,0
2,Livia,feminin,57,Analyste financier,0,Uri ,70,6552.0
3,Léon,autre,27,Agent d'entretien,0,Neuchâtel ,40,3312.0
4,Gabrielle,feminin,15,Fleuriste,1,Vaud ,0,0
5,Maëlys,feminin,48,Avocat,2,Bâle-Campagne ,40,2736.0
6,Giulia,feminin,14,Kinésithérapeute,1,Lucerne ,0,0
7,Mathilde,feminin,57,Chefs de chantier,2,Glaris ,40,6336.0
8,Lucie,autre,68,Nutritionniste,0,Zurich ,0,0
9,Léon,masculin,56,Agent d'entretien,3,NULL,80,3456.0
10,Léa,feminin,64,Sages-femmes,0,Lucerne ,90,9072.0
11,Aaron,masculin,63,Educateur de jeunes,3,Obwald ,30,3456.0
12,Naïm,autre,31,NULL,2,Thurgovie ,50,3779.9999999999995
13,Luna,autre,41,Sages-femmes,3,Bâle-Ville ,100,12600.0
14,Margaux,autre,16,Chargé de communication,0,Zoug ,0,0
15,Emy,feminin,94,Gestionnaire immobilier,1,NULL,0,0
16,Malo,masculin,99,Géomètre,3,Soleure ,0,0
17,Héloïse,feminin,47,NULL,0,Schwyz ,70,12096.0
18,Gabrielle,feminin,57,Diététicien,1,Berne ,50,NULL
19,Marius,masculin,6,Bibliothécaire,3,Zurich ,0,0
